 _             _  _      _                                            _     
| |__    ___  | |(_)  __| |  __ _  _   _  ___        __      __  ___ | |__  
| '_ \  / _ \ | || | / _` | / _` || | | |/ __| _____ \ \ /\ / / / _ \| '_ \ 
| | | || (_) || || || (_| || (_| || |_| |\__ \|_____| \ V  V / |  __/| |_) |
|_| |_| \___/ |_||_| \__,_| \__,_| \__, ||___/         \_/\_/   \___||_.__/ 
                                   |___/                                    
